<?xml version="1.0" encoding="UTF-8"?>
<svg width="232px" height="155px" viewBox="0 0 232 155" version="1.1" xmlns="http://www.w3.org/2000/svg" xmlns:xlink="http://www.w3.org/1999/xlink">
    <!-- Generator: Sketch 50.2 (55047) - http://www.bohemiancoding.com/sketch -->
    <title>Group</title>
    <desc>Created with Sketch.</desc>
    <defs></defs>
    <g id="Page-1" stroke="none" stroke-width="1" fill="none" fill-rule="evenodd">
        <g id="Artboard" transform="translate(-345.000000, -318.000000)">
            <g id="Group" transform="translate(345.000000, 318.000000)">
                <rect id="Rectangle-3" stroke-opacity="0.2" stroke="#979797" fill="#FFFFFF" x="0.5" y="0.5" width="231" height="154" rx="5"></rect>
                <rect id="Rectangle" fill="#B2B2B2" opacity="0.588950893" x="72" y="29" width="23" height="6"></rect>
                <rect id="Rectangle" fill="#D8D8D8" opacity="0.588950893" x="72" y="40" width="89" height="6"></rect>
                <rect id="Rectangle" fill="#D8D8D8" opacity="0.588950893" x="72" y="50" width="69" height="6"></rect>
                <rect id="Rectangle" fill="#D8D8D8" opacity="0.588950893" x="72" y="60" width="79" height="6"></rect>
                <rect id="Rectangle" fill="#D8D8D8" opacity="0.588950893" x="72" y="70" width="69" height="6"></rect>
                <rect id="Rectangle" fill="#D8D8D8" opacity="0.588950893" x="72" y="80" width="91" height="6"></rect>
            </g>
        </g>
    </g>
</svg>